\relax 
\providecommand\hyper@newdestlabel[2]{}
\@writefile{toc}{\contentsline {chapter}{\numberline {3}Anal\IeC {\'y}za a architektury software}{39}{chapter.3}}
\@writefile{lof}{\addvspace {10\p@ }}
\@writefile{lot}{\addvspace {10\p@ }}
\@writefile{toc}{\contentsline {section}{\numberline {3.1}Procesy v\IeC {\'y}voje SW a jejich f\IeC {\'a}ze}{39}{section.3.1}}
\@writefile{toc}{\contentsline {subsection}{\numberline {3.1.1}F\IeC {\'a}ze}{39}{subsection.3.1.1}}
\@writefile{toc}{\contentsline {subsection}{\numberline {3.1.2}Metody v\IeC {\'y}voje}{40}{subsection.3.1.2}}
\@writefile{toc}{\contentsline {subsection}{\numberline {3.1.3}Reuirements Engineering}{42}{subsection.3.1.3}}
\@writefile{toc}{\contentsline {subsection}{\numberline {3.1.4}Evoluce softwaru}{44}{subsection.3.1.4}}
\@writefile{toc}{\contentsline {section}{\numberline {3.2}Podnikov\IeC {\'e} procesy a jejich modelov\IeC {\'a}n\IeC {\'\i } pomoc\IeC {\'\i } BPMN}{44}{section.3.2}}
\@writefile{toc}{\contentsline {subsection}{\numberline {3.2.1}Business Driven Development - BDD}{45}{subsection.3.2.1}}
\@writefile{toc}{\contentsline {subsubsection}{LF - Modeling}{46}{section*.2}}
\@writefile{toc}{\contentsline {subsubsection}{LF - Development}{46}{section*.3}}
\@writefile{toc}{\contentsline {subsubsection}{LF - Deployment}{47}{section*.4}}
\@writefile{toc}{\contentsline {subsubsection}{LF - Monitoring}{47}{section*.5}}
\@writefile{toc}{\contentsline {subsubsection}{LF - Adaptation}{47}{section*.6}}
\@writefile{toc}{\contentsline {subsection}{\numberline {3.2.2}BPMN}{47}{subsection.3.2.2}}
\@writefile{toc}{\contentsline {section}{\numberline {3.3}UML a jeho vyu\IeC {\v z}it\IeC {\'\i } pro anal\IeC {\'y}zu a n\IeC {\'a}vrh struktury a chov\IeC {\'a}n\IeC {\'\i } SW}{48}{section.3.3}}
\@writefile{toc}{\contentsline {section}{\numberline {3.4}N\IeC {\'a}vrhov\IeC {\'e} vzory}{49}{section.3.4}}
\@writefile{toc}{\contentsline {subsection}{\numberline {3.4.1}Layer}{49}{subsection.3.4.1}}
\@writefile{toc}{\contentsline {subsection}{\numberline {3.4.2}Broker}{50}{subsection.3.4.2}}
\@writefile{toc}{\contentsline {subsection}{\numberline {3.4.3}MVC}{50}{subsection.3.4.3}}
\@writefile{toc}{\contentsline {subsection}{\numberline {3.4.4}Pipe and Filter}{51}{subsection.3.4.4}}
\@writefile{toc}{\contentsline {subsection}{\numberline {3.4.5}Client-Server}{51}{subsection.3.4.5}}
\@writefile{toc}{\contentsline {subsection}{\numberline {3.4.6}Peer-to-peer}{51}{subsection.3.4.6}}
\@writefile{toc}{\contentsline {subsection}{\numberline {3.4.7}Publish subscribe}{52}{subsection.3.4.7}}
\@writefile{toc}{\contentsline {subsection}{\numberline {3.4.8}Map-Reduce}{52}{subsection.3.4.8}}
\@writefile{toc}{\contentsline {section}{\numberline {3.5}Testov\IeC {\'a}n\IeC {\'\i } SW, dopadov\IeC {\'a} a zm\IeC {\v e}nov\IeC {\'a} anal\IeC {\'y}za}{53}{section.3.5}}
\@writefile{toc}{\contentsline {subsection}{\numberline {3.5.1}Unit testing}{54}{subsection.3.5.1}}
\@writefile{toc}{\contentsline {subsection}{\numberline {3.5.2}Component/Integra\IeC {\v c}n\IeC {\'\i } testing}{55}{subsection.3.5.2}}
\@writefile{toc}{\contentsline {subsection}{\numberline {3.5.3}System testing}{55}{subsection.3.5.3}}
\@writefile{toc}{\contentsline {subsection}{\numberline {3.5.4}Test driven development}{55}{subsection.3.5.4}}
\@writefile{toc}{\contentsline {section}{\numberline {3.6}Pl\IeC {\'a}nov\IeC {\'a}n\IeC {\'\i } SW projekt\IeC {\r u}, odhad n\IeC {\'a}klad\IeC {\r u}, \IeC {\'u}rovn\IeC {\v e} \IeC {\v r}\IeC {\'\i }zen\IeC {\'\i } projekt\IeC {\r u}}{55}{section.3.6}}
\@writefile{toc}{\contentsline {subsection}{\numberline {3.6.1}Risk management}{56}{subsection.3.6.1}}
\@writefile{toc}{\contentsline {subsection}{\numberline {3.6.2}Pl\IeC {\'a}nov\IeC {\'a}n\IeC {\'\i } projektu}{56}{subsection.3.6.2}}
\@writefile{toc}{\contentsline {subsection}{\numberline {3.6.3}Project scheduling}{57}{subsection.3.6.3}}
\@writefile{toc}{\contentsline {section}{\numberline {3.7}Pr\IeC {\'a}vn\IeC {\'\i } aspekty SW, hlavn\IeC {\'\i } z\IeC {\'a}kony d\IeC {\r u}le\IeC {\v z}it\IeC {\'e} pro IT projekty}{57}{section.3.7}}
\@writefile{toc}{\contentsline {subsection}{\numberline {3.7.1}Autorsk\IeC {\'e} pr\IeC {\'a}vo}{57}{subsection.3.7.1}}
\@writefile{toc}{\contentsline {subsection}{\numberline {3.7.2}Patentov\IeC {\'a} ochrana software}{58}{subsection.3.7.2}}
\@writefile{toc}{\contentsline {subsection}{\numberline {3.7.3}Pr\IeC {\'a}vn\IeC {\'\i } ochrana datab\IeC {\'a}z\IeC {\'\i }}{59}{subsection.3.7.3}}
\@writefile{toc}{\contentsline {section}{\numberline {3.8}Typy pohled\IeC {\r u} na SW architekturu}{59}{section.3.8}}
\@writefile{toc}{\contentsline {subsection}{\numberline {3.8.1}Bass, Clemens, Kazman pohledy}{60}{subsection.3.8.1}}
\@writefile{toc}{\contentsline {subsubsection}{Module viewpoint}{60}{section*.7}}
\@writefile{toc}{\contentsline {subsubsection}{Component-and-connector viewpoint}{61}{section*.8}}
\@writefile{toc}{\contentsline {subsubsection}{Allocation viewpoint}{62}{section*.9}}
\@writefile{toc}{\contentsline {subsection}{\numberline {3.8.2}Kruchten's 4+1 View}{62}{subsection.3.8.2}}
\@writefile{toc}{\contentsline {subsubsection}{Logical view}{62}{section*.10}}
\@writefile{toc}{\contentsline {subsubsection}{Development view}{62}{section*.11}}
\@writefile{toc}{\contentsline {subsubsection}{Process view}{63}{section*.12}}
\@writefile{toc}{\contentsline {subsubsection}{Physical view}{63}{section*.13}}
\@writefile{toc}{\contentsline {subsubsection}{Scenarios}{63}{section*.14}}
\@writefile{toc}{\contentsline {section}{\numberline {3.9}Modelov\IeC {\'a}n\IeC {\'\i } a dokumentace SW architektury - TODO}{63}{section.3.9}}
\@writefile{toc}{\contentsline {subsection}{\numberline {3.9.1}Form\IeC {\'a}ln\IeC {\'\i } modelov\IeC {\'a}n\IeC {\'\i } - TODO}{63}{subsection.3.9.1}}
\@writefile{toc}{\contentsline {subsection}{\numberline {3.9.2}Organiza\IeC {\v c}n\IeC {\'\i } architektura}{65}{subsection.3.9.2}}
\@writefile{toc}{\contentsline {subsection}{\numberline {3.9.3}Informa\IeC {\v c}n\IeC {\'\i } architektura}{65}{subsection.3.9.3}}
\@writefile{toc}{\contentsline {subsection}{\numberline {3.9.4}Modelem \IeC {\v r}\IeC {\'\i }zen\IeC {\'y} v\IeC {\'y}voj}{66}{subsection.3.9.4}}
\@writefile{toc}{\contentsline {section}{\numberline {3.10}Klasifikace atribut\IeC {\r u} kvality SW architektury, jejich popis pomoc\IeC {\'\i } sc\IeC {\'e}n\IeC {\'a}\IeC {\v r}\IeC {\r u} a taktik}{66}{section.3.10}}
\@writefile{toc}{\contentsline {subsection}{\numberline {3.10.1}Availability}{66}{subsection.3.10.1}}
\@writefile{toc}{\contentsline {subsection}{\numberline {3.10.2}Modifiability}{67}{subsection.3.10.2}}
\@writefile{toc}{\contentsline {subsection}{\numberline {3.10.3}Performance}{68}{subsection.3.10.3}}
\@writefile{toc}{\contentsline {subsection}{\numberline {3.10.4}Security}{68}{subsection.3.10.4}}
\@writefile{toc}{\contentsline {subsection}{\numberline {3.10.5}Interoperability}{69}{subsection.3.10.5}}
\@writefile{toc}{\contentsline {subsection}{\numberline {3.10.6}Testability}{69}{subsection.3.10.6}}
\@writefile{toc}{\contentsline {subsection}{\numberline {3.10.7}Usability}{70}{subsection.3.10.7}}
\@writefile{toc}{\contentsline {section}{\numberline {3.11}Servisn\IeC {\v e} orientovan\IeC {\'e} architektury}{71}{section.3.11}}
\@writefile{toc}{\contentsline {subsubsection}{Standardizace}{71}{section*.15}}
\@writefile{toc}{\contentsline {subsubsection}{Loose-coupling}{71}{section*.16}}
\@writefile{toc}{\contentsline {subsubsection}{Abstrakce}{72}{section*.17}}
\@writefile{toc}{\contentsline {subsubsection}{Znovupou\IeC {\v z}itelnost}{72}{section*.18}}
\@writefile{toc}{\contentsline {subsubsection}{Autonomie}{72}{section*.19}}
\@writefile{toc}{\contentsline {subsubsection}{Bezestavovost}{72}{section*.20}}
\@writefile{toc}{\contentsline {subsubsection}{Vyhledatelnost}{72}{section*.21}}
\@writefile{toc}{\contentsline {subsubsection}{Composability}{73}{section*.22}}
\@writefile{toc}{\contentsline {section}{\numberline {3.12}Algebraick\IeC {\'e} metody, v\IeC {\'\i }cedruhov\IeC {\'e} algebry, inici\IeC {\'a}ln\IeC {\'\i } modely - TODO}{73}{section.3.12}}
\@writefile{toc}{\contentsline {section}{\numberline {3.13}Form\IeC {\'a}ln\IeC {\'\i } z\IeC {\'a}klady jazyka UML}{73}{section.3.13}}
\@writefile{toc}{\contentsline {subsection}{\numberline {3.13.1}UML class diagram}{73}{subsection.3.13.1}}
\@writefile{toc}{\contentsline {section}{\numberline {3.14}OCL jako specifika\IeC {\v c}n\IeC {\'\i } jazyk a form\IeC {\'a}ln\IeC {\'\i } z\IeC {\'a}klady dle specifikace}{74}{section.3.14}}
\@writefile{toc}{\contentsline {section}{\numberline {3.15}Form\IeC {\'a}ln\IeC {\'\i } z\IeC {\'a}klady RDF a jazyka OWL, deskrip\IeC {\v c}n\IeC {\'\i } logika}{75}{section.3.15}}
\@writefile{toc}{\contentsline {subsection}{\numberline {3.15.1}Deskrip\IeC {\v c}n\IeC {\'\i } logika}{75}{subsection.3.15.1}}
\@writefile{toc}{\contentsline {subsection}{\numberline {3.15.2}OWL}{77}{subsection.3.15.2}}
\@setckpt{architecture}{
\setcounter{page}{78}
\setcounter{equation}{0}
\setcounter{enumi}{1}
\setcounter{enumii}{0}
\setcounter{enumiii}{0}
\setcounter{enumiv}{0}
\setcounter{footnote}{0}
\setcounter{mpfootnote}{0}
\setcounter{part}{0}
\setcounter{chapter}{3}
\setcounter{section}{15}
\setcounter{subsection}{2}
\setcounter{subsubsection}{0}
\setcounter{paragraph}{0}
\setcounter{subparagraph}{0}
\setcounter{figure}{0}
\setcounter{table}{0}
\setcounter{parentequation}{0}
\setcounter{FancyVerbLine}{0}
\setcounter{NAT@ctr}{0}
\setcounter{dirtytalk@qdepth}{0}
\setcounter{lips@count}{0}
\setcounter{blindtext}{1}
\setcounter{Blindtext}{5}
\setcounter{blind@countparstart}{0}
\setcounter{blindlist}{0}
\setcounter{blindlistlevel}{0}
\setcounter{blindlist@level}{0}
\setcounter{blind@listcount}{0}
\setcounter{blind@levelcount}{0}
\setcounter{blind@randomcount}{0}
\setcounter{blind@randommax}{0}
\setcounter{blind@pangramcount}{0}
\setcounter{blind@pangrammax}{0}
\setcounter{Item}{4}
\setcounter{Hfootnote}{0}
\setcounter{bookmark@seq@number}{116}
\setcounter{thm}{0}
\setcounter{defn}{0}
\setcounter{section@level}{2}
}
