\relax 
\providecommand\hyper@newdestlabel[2]{}
\@writefile{toc}{\contentsline {chapter}{\numberline {1}Slo\IeC {\v z}itost a vy\IeC {\v c}\IeC {\'\i }slitelnost}{7}{chapter.1}}
\@writefile{lof}{\addvspace {10\p@ }}
\@writefile{lot}{\addvspace {10\p@ }}
\@writefile{toc}{\contentsline {section}{\numberline {1.1}V\IeC {\'y}po\IeC {\v c}etn\IeC {\'\i } modely (Turingovy stroje, RAM)}{7}{section.1.1}}
\@writefile{toc}{\contentsline {subsection}{\numberline {1.1.1}Turingovy stroje}{7}{subsection.1.1.1}}
\@writefile{toc}{\contentsline {subsection}{\numberline {1.1.2}RAM}{8}{subsection.1.1.2}}
\@writefile{toc}{\contentsline {subsection}{\numberline {1.1.3}D\IeC {\r u}kaz - RAM na TS a TS na RAM}{9}{subsection.1.1.3}}
\@writefile{toc}{\contentsline {subsection}{\numberline {1.1.4}Godelovo \IeC {\v c}\IeC {\'\i }slo}{9}{subsection.1.1.4}}
\@writefile{toc}{\contentsline {subsection}{\numberline {1.1.5}Univerz\IeC {\'a}ln\IeC {\'\i } TS}{9}{subsection.1.1.5}}
\@writefile{toc}{\contentsline {section}{\numberline {1.2}Algoritmicky nerozhodnuteln\IeC {\'e} probl\IeC {\'e}my (halting problem)}{10}{section.1.2}}
\@writefile{toc}{\contentsline {subsection}{\numberline {1.2.1}Postova v\IeC {\v e}ta}{10}{subsection.1.2.1}}
\@writefile{toc}{\contentsline {subsection}{\numberline {1.2.2}D\IeC {\r u}kaz - Diagonaliza\IeC {\v c}n\IeC {\'\i } jazyk nen\IeC {\'\i } \IeC {\v c}\IeC {\'a}ste\IeC {\v c}n\IeC {\v e} rozhodnuteln\IeC {\'y}}{10}{subsection.1.2.2}}
\@writefile{toc}{\contentsline {subsection}{\numberline {1.2.3}D\IeC {\r u}kaz - \IeC {\v C}\IeC {\'a}st\IeC {\v e}\IeC {\v c}n\IeC {\'a} rozhodnutelnost univerz\IeC {\'a}ln\IeC {\'\i }ho jazyka}{11}{subsection.1.2.3}}
\@writefile{toc}{\contentsline {subsection}{\numberline {1.2.4}D\IeC {\r u}kaz - \IeC {\v C}\IeC {\'a}st\IeC {\v e}\IeC {\v c}n\IeC {\'a} rozhodnutelnost halting probl\IeC {\'e}mu}{11}{subsection.1.2.4}}
\@writefile{toc}{\contentsline {section}{\numberline {1.3}Rozhodnuteln\IeC {\'e} a \IeC {\v c}\IeC {\'a}ste\IeC {\v c}n\IeC {\v e} rozhodnuteln\IeC {\'e} probl\IeC {\'e}my}{11}{section.1.3}}
\@writefile{toc}{\contentsline {subsection}{\numberline {1.3.1}D\IeC {\r u}kaz - Riceova v\IeC {\v e}ta}{13}{subsection.1.3.1}}
\@writefile{toc}{\contentsline {section}{\numberline {1.4}Nedeterministick\IeC {\'y} v\IeC {\'y}po\IeC {\v c}etn\IeC {\'\i } model}{13}{section.1.4}}
\@writefile{toc}{\contentsline {subsection}{\numberline {1.4.1}D\IeC {\r u}kaz - Pro ka\IeC {\v z}d\IeC {\'y} NTS existuje DTS, kter\IeC {\'y} simuluje jeho pr\IeC {\'a}ci}{13}{subsection.1.4.1}}
\@writefile{toc}{\contentsline {section}{\numberline {1.5}Z\IeC {\'a}kladn\IeC {\'\i } t\IeC {\v r}\IeC {\'\i }dy slo\IeC {\v z}itosti a jejich vztahy}{13}{section.1.5}}
\@writefile{toc}{\contentsline {subsection}{\numberline {1.5.1}V\IeC {\v e}ta NP = union nedeterministick\IeC {\'y} polynomi\IeC {\'a}ln\IeC {\'\i }}{14}{subsection.1.5.1}}
\@writefile{toc}{\contentsline {subsection}{\numberline {1.5.2}D\IeC {\r u}kaz - Vztahy mezi t\IeC {\v r}\IeC {\'\i }dami}{15}{subsection.1.5.2}}
\@writefile{toc}{\contentsline {subsection}{\numberline {1.5.3}D\IeC {\r u}kaz - NPSPACE je podmno\IeC {\v z}ina EXPTIME}{15}{subsection.1.5.3}}
\@writefile{toc}{\contentsline {subsection}{\numberline {1.5.4}V\IeC {\v s}echny vztahy}{15}{subsection.1.5.4}}
\@writefile{toc}{\contentsline {subsection}{\numberline {1.5.5}Savi\IeC {\v c}ova v\IeC {\v e}ta - jenom zn\IeC {\v e}n\IeC {\'\i } a d\IeC {\r u}sledek}{15}{subsection.1.5.5}}
\@writefile{toc}{\contentsline {section}{\numberline {1.6}V\IeC {\v e}ty o hierarchii}{16}{section.1.6}}
\@writefile{toc}{\contentsline {subsection}{\numberline {1.6.1}D\IeC {\r u}kaz - v\IeC {\v e}ta o deterministick\IeC {\'e} prostorov\IeC {\'e} hiearchii a d\IeC {\r u}sledky}{16}{subsection.1.6.1}}
\@writefile{toc}{\contentsline {subsection}{\numberline {1.6.2}D\IeC {\r u}kaz - v\IeC {\v e}ta o deterministick\IeC {\'e} \IeC {\v c}asov\IeC {\'e} hiearchii a d\IeC {\r u}sledky}{17}{subsection.1.6.2}}
\@writefile{toc}{\contentsline {section}{\numberline {1.7}\IeC {\'U}pln\IeC {\'e} probl\IeC {\'e}my pro t\IeC {\v r}\IeC {\'\i }du NP, Cook-Levinova v\IeC {\v e}ta}{17}{section.1.7}}
\@writefile{toc}{\contentsline {subsection}{\numberline {1.7.1}D\IeC {\r u}kaz - Cook-levinova v\IeC {\v e}ta}{18}{subsection.1.7.1}}
\@writefile{toc}{\contentsline {subsection}{\numberline {1.7.2}D\IeC {\r u}kaz - SAT je NP-\IeC {\'u}pln\IeC {\'y}}{19}{subsection.1.7.2}}
\@writefile{toc}{\contentsline {subsection}{\numberline {1.7.3}D\IeC {\r u}kaz - 3SAT je NP-\IeC {\'u}pln\IeC {\'y}}{19}{subsection.1.7.3}}
\@writefile{toc}{\contentsline {subsection}{\numberline {1.7.4}Dal\IeC {\v s}\IeC {\'\i } NP-\IeC {\'u}pln\IeC {\'e} probl\IeC {\'e}my}{19}{subsection.1.7.4}}
\@writefile{toc}{\contentsline {section}{\numberline {1.8}Pseudopolynomi\IeC {\'a}ln\IeC {\'\i } algoritmy, siln\IeC {\'a} NP-\IeC {\'u}plnost}{19}{section.1.8}}
\@writefile{toc}{\contentsline {subsection}{\numberline {1.8.1}Pseudopolynomi\IeC {\'a}lnost}{19}{subsection.1.8.1}}
\@writefile{toc}{\contentsline {subsection}{\numberline {1.8.2}Siln\IeC {\'a} NP-\IeC {\'u}plnost}{20}{subsection.1.8.2}}
\@writefile{toc}{\contentsline {subsection}{\numberline {1.8.3}D\IeC {\r u}kaz - obchodn\IeC {\'\i } cestuj\IeC {\'\i }c\IeC {\'\i } je siln\IeC {\v e} NP-\IeC {\'u}pln\IeC {\'y}}{21}{subsection.1.8.3}}
\@writefile{toc}{\contentsline {section}{\numberline {1.9}Aproxima\IeC {\v c}n\IeC {\'\i } algoritmy a sch\IeC {\'e}mata}{21}{section.1.9}}
\@writefile{toc}{\contentsline {subsection}{\numberline {1.9.1}D\IeC {\r u}kaz - FF Bin Packing}{22}{subsection.1.9.1}}
\@writefile{toc}{\contentsline {subsection}{\numberline {1.9.2}Aproxima\IeC {\v c}n\IeC {\'\i } sch\IeC {\'e}mata}{22}{subsection.1.9.2}}
\@writefile{toc}{\contentsline {subsection}{\numberline {1.9.3}D\IeC {\r u}kaz - Aproxima\IeC {\v c}n\IeC {\'\i } sch\IeC {\'e}mata a NP-\IeC {\'u}plnost}{23}{subsection.1.9.3}}
\@writefile{toc}{\contentsline {subsection}{\numberline {1.9.4}D\IeC {\r u}kaz - Neaproximovatelnost}{23}{subsection.1.9.4}}
\@setckpt{complexity}{
\setcounter{page}{25}
\setcounter{equation}{0}
\setcounter{enumi}{0}
\setcounter{enumii}{0}
\setcounter{enumiii}{0}
\setcounter{enumiv}{0}
\setcounter{footnote}{0}
\setcounter{mpfootnote}{0}
\setcounter{part}{0}
\setcounter{chapter}{1}
\setcounter{section}{9}
\setcounter{subsection}{4}
\setcounter{subsubsection}{0}
\setcounter{paragraph}{0}
\setcounter{subparagraph}{0}
\setcounter{figure}{0}
\setcounter{table}{0}
\setcounter{parentequation}{0}
\setcounter{FancyVerbLine}{0}
\setcounter{NAT@ctr}{0}
\setcounter{dirtytalk@qdepth}{0}
\setcounter{lips@count}{0}
\setcounter{blindtext}{1}
\setcounter{Blindtext}{5}
\setcounter{blind@countparstart}{0}
\setcounter{blindlist}{0}
\setcounter{blindlistlevel}{0}
\setcounter{blindlist@level}{0}
\setcounter{blind@listcount}{0}
\setcounter{blind@levelcount}{0}
\setcounter{blind@randomcount}{0}
\setcounter{blind@randommax}{0}
\setcounter{blind@pangramcount}{0}
\setcounter{blind@pangrammax}{0}
\setcounter{Item}{0}
\setcounter{Hfootnote}{0}
\setcounter{bookmark@seq@number}{39}
\setcounter{thm}{0}
\setcounter{defn}{0}
\setcounter{section@level}{2}
}
