\relax 
\providecommand\hyper@newdestlabel[2]{}
\@writefile{toc}{\contentsline {chapter}{\numberline {2}Datov\IeC {\'e} struktury}{25}{chapter.2}}
\@writefile{lof}{\addvspace {10\p@ }}
\@writefile{lot}{\addvspace {10\p@ }}
\@writefile{toc}{\contentsline {section}{\numberline {2.1}Vyhled\IeC {\'a}vac\IeC {\'\i } stromy ((a,b)-stromy, Splay stromy)}{25}{section.2.1}}
\@writefile{toc}{\contentsline {subsection}{\numberline {2.1.1}BB[1/2]-stromy}{25}{subsection.2.1.1}}
\@writefile{toc}{\contentsline {subsection}{\numberline {2.1.2}Splay stromy}{25}{subsection.2.1.2}}
\@writefile{toc}{\contentsline {subsection}{\numberline {2.1.3}(a,b)-stromy}{26}{subsection.2.1.3}}
\@writefile{toc}{\contentsline {subsection}{\numberline {2.1.4}\IeC {\v C}erveno-\IeC {\v c}ern\IeC {\'e} stromy}{27}{subsection.2.1.4}}
\@writefile{toc}{\contentsline {section}{\numberline {2.2}Haldy (regul\IeC {\'a}rn\IeC {\'\i }, binomi\IeC {\'a}ln\IeC {\'\i })}{27}{section.2.2}}
\@writefile{toc}{\contentsline {subsection}{\numberline {2.2.1}D-regul\IeC {\'a}rn\IeC {\'\i } halda}{28}{subsection.2.2.1}}
\@writefile{toc}{\contentsline {subsection}{\numberline {2.2.2}Binomi\IeC {\'a}ln\IeC {\'\i } halda}{28}{subsection.2.2.2}}
\@writefile{toc}{\contentsline {subsection}{\numberline {2.2.3}L\IeC {\'\i }n\IeC {\'a} Binomi\IeC {\'a}ln\IeC {\'\i } halda}{29}{subsection.2.2.3}}
\@writefile{toc}{\contentsline {subsection}{\numberline {2.2.4}Fibonnaciho halda}{29}{subsection.2.2.4}}
\@writefile{toc}{\contentsline {section}{\numberline {2.3}Ha\IeC {\v s}ov\IeC {\'a}n\IeC {\'\i }, \IeC {\v r}e\IeC {\v s}en\IeC {\'\i } koliz\IeC {\'\i }, univerz\IeC {\'a}ln\IeC {\'\i } ha\IeC {\v s}ov\IeC {\'a}n\IeC {\'\i }, v\IeC {\'y}b\IeC {\v e}r ha\IeC {\v s}ovac\IeC {\'\i } funkce}{29}{section.2.3}}
\@writefile{toc}{\contentsline {subsection}{\numberline {2.3.1}Line\IeC {\'a}rn\IeC {\'\i } p\IeC {\v r}id\IeC {\'a}v\IeC {\'a}n\IeC {\'\i }}{30}{subsection.2.3.1}}
\@writefile{toc}{\contentsline {subsection}{\numberline {2.3.2}Perfektn\IeC {\'\i } hashov\IeC {\'a}n\IeC {\'\i }}{30}{subsection.2.3.2}}
\@writefile{toc}{\contentsline {subsection}{\numberline {2.3.3}Kuka\IeC {\v c}\IeC {\v c}\IeC {\'\i } hashov\IeC {\'a}n\IeC {\'\i }}{31}{subsection.2.3.3}}
\@writefile{toc}{\contentsline {section}{\numberline {2.4}Anal\IeC {\'y}za nejhor\IeC {\v s}\IeC {\'\i }ho, amortizovan\IeC {\'e}ho a o\IeC {\v c}ek\IeC {\'a}van\IeC {\'e}ho chov\IeC {\'a}n\IeC {\'\i } datov\IeC {\'y}ch struktur}{32}{section.2.4}}
\@writefile{toc}{\contentsline {subsection}{\numberline {2.4.1}Nafukovac\IeC {\'\i } pole - agrega\IeC {\v c}n\IeC {\'\i } metoda}{33}{subsection.2.4.1}}
\@writefile{toc}{\contentsline {subsection}{\numberline {2.4.2}Zmen\IeC {\v s}ovac\IeC {\'\i } pole - \IeC {\'u}\IeC {\v c}etn\IeC {\'\i } metoda}{33}{subsection.2.4.2}}
\@writefile{toc}{\contentsline {subsection}{\numberline {2.4.3}Bin\IeC {\'a}rn\IeC {\'\i } pole - pen\IeC {\'\i }zkov\IeC {\'a} metoda}{33}{subsection.2.4.3}}
\@writefile{toc}{\contentsline {subsection}{\numberline {2.4.4}Potenci\IeC {\'a}lov\IeC {\'a} metoda}{34}{subsection.2.4.4}}
\@writefile{toc}{\contentsline {section}{\numberline {2.5}Chov\IeC {\'a}n\IeC {\'\i } a anal\IeC {\'y}za datov\IeC {\'y}ch struktur na syst\IeC {\'e}mech s pam\IeC {\v e}\IeC {\v t}ovou hierarchi\IeC {\'\i }}{34}{section.2.5}}
\@setckpt{datastruct}{
\setcounter{page}{38}
\setcounter{equation}{0}
\setcounter{enumi}{0}
\setcounter{enumii}{0}
\setcounter{enumiii}{0}
\setcounter{enumiv}{0}
\setcounter{footnote}{0}
\setcounter{mpfootnote}{0}
\setcounter{part}{0}
\setcounter{chapter}{2}
\setcounter{section}{5}
\setcounter{subsection}{0}
\setcounter{subsubsection}{0}
\setcounter{paragraph}{0}
\setcounter{subparagraph}{0}
\setcounter{figure}{0}
\setcounter{table}{0}
\setcounter{parentequation}{0}
\setcounter{FancyVerbLine}{0}
\setcounter{NAT@ctr}{0}
\setcounter{dirtytalk@qdepth}{0}
\setcounter{lips@count}{0}
\setcounter{blindtext}{1}
\setcounter{Blindtext}{5}
\setcounter{blind@countparstart}{0}
\setcounter{blindlist}{0}
\setcounter{blindlistlevel}{0}
\setcounter{blindlist@level}{0}
\setcounter{blind@listcount}{0}
\setcounter{blind@levelcount}{0}
\setcounter{blind@randomcount}{0}
\setcounter{blind@randommax}{0}
\setcounter{blind@pangramcount}{0}
\setcounter{blind@pangrammax}{0}
\setcounter{Item}{0}
\setcounter{Hfootnote}{0}
\setcounter{bookmark@seq@number}{60}
\setcounter{thm}{0}
\setcounter{defn}{0}
\setcounter{section@level}{1}
}
