\relax 
\providecommand\hyper@newdestlabel[2]{}
\@writefile{toc}{\contentsline {chapter}{\numberline {4}Roz\IeC {\v s}\IeC {\'\i }\IeC {\v r}en\IeC {\'e} programov\IeC {\'a}n\IeC {\'\i }}{79}{chapter.4}}
\@writefile{lof}{\addvspace {10\p@ }}
\@writefile{lot}{\addvspace {10\p@ }}
\@writefile{toc}{\contentsline {section}{\numberline {4.1}Obecn\IeC {\v e}}{79}{section.4.1}}
\@writefile{toc}{\contentsline {subsection}{\numberline {4.1.1}C\# }{80}{subsection.4.1.1}}
\@writefile{toc}{\contentsline {subsection}{\numberline {4.1.2}Java}{82}{subsection.4.1.2}}
\@writefile{toc}{\contentsline {subsection}{\numberline {4.1.3}C++}{84}{subsection.4.1.3}}
\@writefile{toc}{\contentsline {section}{\numberline {4.2}Objektov\IeC {\'e} koncepty modern\IeC {\'\i }ch jazyk\IeC {\r u}}{87}{section.4.2}}
\@writefile{toc}{\contentsline {subsection}{\numberline {4.2.1}Variance}{88}{subsection.4.2.1}}
\@writefile{toc}{\contentsline {subsection}{\numberline {4.2.2}D\IeC {\v e}di\IeC {\v c}nost}{89}{subsection.4.2.2}}
\@writefile{toc}{\contentsline {subsubsection}{C\# }{90}{section*.23}}
\@writefile{toc}{\contentsline {subsubsection}{Java}{90}{section*.24}}
\@writefile{toc}{\contentsline {subsubsection}{C++}{90}{section*.25}}
\@writefile{toc}{\contentsline {subsection}{\numberline {4.2.3}Virtu\IeC {\'a}ln\IeC {\'\i } metody}{91}{subsection.4.2.3}}
\@writefile{toc}{\contentsline {subsubsection}{C\# }{92}{section*.26}}
\@writefile{toc}{\contentsline {subsubsection}{Java}{92}{section*.27}}
\@writefile{toc}{\contentsline {subsubsection}{C++}{92}{section*.28}}
\@writefile{toc}{\contentsline {section}{\numberline {4.3}Generick\IeC {\'e} programov\IeC {\'a}n\IeC {\'\i } a metaprogramov\IeC {\'a}n\IeC {\'\i }, generika a \IeC {\v s}ablony, politiky, traits, type inference}{93}{section.4.3}}
\@writefile{toc}{\contentsline {subsection}{\numberline {4.3.1}Generick\IeC {\'e} programov\IeC {\'a}n\IeC {\'\i }}{93}{subsection.4.3.1}}
\@writefile{toc}{\contentsline {subsubsection}{C\#}{93}{section*.29}}
\@writefile{toc}{\contentsline {subsubsection}{Java}{94}{section*.30}}
\@writefile{toc}{\contentsline {subsubsection}{C++}{95}{section*.31}}
\@writefile{toc}{\contentsline {subsection}{\numberline {4.3.2}Metaprogramov\IeC {\'a}n\IeC {\'\i } - TODO GROOVY}{96}{subsection.4.3.2}}
\@writefile{toc}{\contentsline {subsection}{\numberline {4.3.3}C\# }{97}{subsection.4.3.3}}
\@writefile{toc}{\contentsline {subsubsection}{Java}{97}{section*.32}}
\@writefile{toc}{\contentsline {subsubsection}{C++}{98}{section*.33}}
\@writefile{toc}{\contentsline {subsection}{\numberline {4.3.4}Politiky a traits}{98}{subsection.4.3.4}}
\@writefile{toc}{\contentsline {subsubsection}{C++}{98}{section*.34}}
\@writefile{toc}{\contentsline {subsection}{\numberline {4.3.5}Type inference}{99}{subsection.4.3.5}}
\@writefile{toc}{\contentsline {subsubsection}{C\#}{99}{section*.35}}
\@writefile{toc}{\contentsline {subsubsection}{Java}{100}{section*.36}}
\@writefile{toc}{\contentsline {subsubsection}{C++}{100}{section*.37}}
\@writefile{toc}{\contentsline {section}{\numberline {4.4}Modern\IeC {\'\i } konstrukce programovac\IeC {\'\i }ch jazyk\IeC {\r u} - TODO functor a mon\IeC {\'a}dy}{100}{section.4.4}}
\@writefile{toc}{\contentsline {section}{\numberline {4.5}Odkazy na objekty a jejich \IeC {\v z}ivotnost}{101}{section.4.5}}
\@writefile{toc}{\contentsline {section}{\numberline {4.6}Pokro\IeC {\v c}il\IeC {\'e} aspekty imperativn\IeC {\'\i }ch jazyk\IeC {\r u}}{101}{section.4.6}}
\@writefile{toc}{\contentsline {subsection}{\numberline {4.6.1}Real-time syst\IeC {\'e}my}{102}{subsection.4.6.1}}
\@writefile{toc}{\contentsline {subsection}{\numberline {4.6.2}Java Anotace}{102}{subsection.4.6.2}}
\@writefile{toc}{\contentsline {subsection}{\numberline {4.6.3}RMI}{103}{subsection.4.6.3}}
\@writefile{toc}{\contentsline {subsection}{\numberline {4.6.4}Java ClassLoader}{103}{subsection.4.6.4}}
\@writefile{toc}{\contentsline {subsection}{\numberline {4.6.5}Java native interface a access}{103}{subsection.4.6.5}}
\@writefile{toc}{\contentsline {subsection}{\numberline {4.6.6}Aspektov\IeC {\v e} orientovan\IeC {\'e} programov\IeC {\'a}n\IeC {\'\i }}{104}{subsection.4.6.6}}
\@writefile{toc}{\contentsline {subsection}{\numberline {4.6.7}JavaBeans}{105}{subsection.4.6.7}}
\@writefile{toc}{\contentsline {subsection}{\numberline {4.6.8}Servlety}{105}{subsection.4.6.8}}
\@writefile{toc}{\contentsline {subsection}{\numberline {4.6.9}C\# Deleg\IeC {\'a}ti}{106}{subsection.4.6.9}}
\@writefile{toc}{\contentsline {subsection}{\numberline {4.6.10}Konkurence}{107}{subsection.4.6.10}}
\@writefile{toc}{\contentsline {subsubsection}{Java}{107}{section*.38}}
\@writefile{toc}{\contentsline {subsubsection}{C++}{108}{section*.39}}
\@writefile{toc}{\contentsline {subsubsection}{C\# - TODO async eventu\IeC {\'a}ln\IeC {\v e}}{110}{section*.40}}
\@writefile{toc}{\contentsline {section}{\numberline {4.7}V\IeC {\'y}jimky a bezpe\IeC {\v c}n\IeC {\'e} programov\IeC {\'a}n\IeC {\'\i } v prost\IeC {\v r}ed\IeC {\'\i } s v\IeC {\'y}jimkami}{110}{section.4.7}}
\@writefile{toc}{\contentsline {subsection}{\numberline {4.7.1}C\# }{110}{subsection.4.7.1}}
\@writefile{toc}{\contentsline {subsection}{\numberline {4.7.2}Java}{111}{subsection.4.7.2}}
\@writefile{toc}{\contentsline {subsection}{\numberline {4.7.3}C++}{111}{subsection.4.7.3}}
\@writefile{toc}{\contentsline {section}{\numberline {4.8}Implementace objektov\IeC {\'y}ch vlastnost\IeC {\'\i }, b\IeC {\v e}hov\IeC {\'a} podpora, volac\IeC {\'\i } konvence, garbage collection}{112}{section.4.8}}
\@writefile{toc}{\contentsline {subsection}{\numberline {4.8.1}GC}{114}{subsection.4.8.1}}
\@writefile{toc}{\contentsline {subsubsection}{C\# }{114}{section*.41}}
\@writefile{toc}{\contentsline {subsubsection}{Java}{115}{section*.42}}
\@writefile{toc}{\contentsline {subsubsection}{C++}{115}{section*.43}}
\@writefile{toc}{\contentsline {section}{\numberline {4.9}Vliv modern\IeC {\'\i }ch konstrukc\IeC {\'\i } na v\IeC {\'y}konnost k\IeC {\'o}du - TODO}{115}{section.4.9}}
\@writefile{toc}{\contentsline {section}{\numberline {4.10}N\IeC {\'a}vrhov\IeC {\'e} vzory a jejich vyu\IeC {\v z}it\IeC {\'\i }}{115}{section.4.10}}
\@writefile{toc}{\contentsline {subsection}{\numberline {4.10.1}Creational - Factory method}{115}{subsection.4.10.1}}
\@writefile{toc}{\contentsline {subsection}{\numberline {4.10.2}Creational - Abstract factory}{115}{subsection.4.10.2}}
\@writefile{toc}{\contentsline {subsection}{\numberline {4.10.3}Creational - Builder}{115}{subsection.4.10.3}}
\@writefile{toc}{\contentsline {subsection}{\numberline {4.10.4}Creational - Prototype}{116}{subsection.4.10.4}}
\@writefile{toc}{\contentsline {subsection}{\numberline {4.10.5}Creational - Singleton}{116}{subsection.4.10.5}}
\@writefile{toc}{\contentsline {subsection}{\numberline {4.10.6}Structural - Adapter}{116}{subsection.4.10.6}}
\@writefile{toc}{\contentsline {subsection}{\numberline {4.10.7}Structural - Bridge}{117}{subsection.4.10.7}}
\@writefile{toc}{\contentsline {subsection}{\numberline {4.10.8}Structural - Composite}{117}{subsection.4.10.8}}
\@writefile{toc}{\contentsline {subsection}{\numberline {4.10.9}Structural - Decorator}{117}{subsection.4.10.9}}
\@writefile{toc}{\contentsline {subsection}{\numberline {4.10.10}Structural - Facade}{118}{subsection.4.10.10}}
\@writefile{toc}{\contentsline {subsection}{\numberline {4.10.11}Structural - Flyweight}{118}{subsection.4.10.11}}
\@writefile{toc}{\contentsline {subsection}{\numberline {4.10.12}Structural - Proxy}{118}{subsection.4.10.12}}
\@writefile{toc}{\contentsline {subsection}{\numberline {4.10.13}Behavioral - Chain of responsibility}{119}{subsection.4.10.13}}
\@writefile{toc}{\contentsline {subsection}{\numberline {4.10.14}Behavioral - Command}{119}{subsection.4.10.14}}
\@writefile{toc}{\contentsline {subsection}{\numberline {4.10.15}Behavioral - Interpreter}{119}{subsection.4.10.15}}
\@writefile{toc}{\contentsline {subsection}{\numberline {4.10.16}Behavioral - Iterator}{120}{subsection.4.10.16}}
\@writefile{toc}{\contentsline {subsection}{\numberline {4.10.17}Behavioral - Mediator}{120}{subsection.4.10.17}}
\@writefile{toc}{\contentsline {subsection}{\numberline {4.10.18}Behavioral - Memento}{120}{subsection.4.10.18}}
\@writefile{toc}{\contentsline {subsection}{\numberline {4.10.19}Behavioral - Observer}{120}{subsection.4.10.19}}
\@writefile{toc}{\contentsline {subsection}{\numberline {4.10.20}Behavioral - State}{121}{subsection.4.10.20}}
\@writefile{toc}{\contentsline {subsection}{\numberline {4.10.21}Behavioral - Strategy}{121}{subsection.4.10.21}}
\@writefile{toc}{\contentsline {subsection}{\numberline {4.10.22}Behavioral - Template method}{121}{subsection.4.10.22}}
\@writefile{toc}{\contentsline {subsection}{\numberline {4.10.23}Behavioral - Visitor}{122}{subsection.4.10.23}}
\@writefile{toc}{\contentsline {section}{\numberline {4.11}Skriptovac\IeC {\'\i } jazyky, prototype-based jazyky, koncepty jazyk\IeC {\r u} bez t\IeC {\v r}\IeC {\'\i }d}{122}{section.4.11}}
\@writefile{toc}{\contentsline {subsection}{\numberline {4.11.1}Java Scripting API}{122}{subsection.4.11.1}}
\@writefile{toc}{\contentsline {section}{\numberline {4.12}Domain Specific Languages}{123}{section.4.12}}
\@writefile{toc}{\contentsline {section}{\numberline {4.13}Funkcion\IeC {\'a}ln\IeC {\'\i } programov\IeC {\'a}n\IeC {\'\i }}{123}{section.4.13}}
\@writefile{toc}{\contentsline {section}{\numberline {4.14}Principy tvorby kvalitn\IeC {\'\i }ho k\IeC {\'o}du, doporu\IeC {\v c}en\IeC {\'e} postupy, refaktorizace}{124}{section.4.14}}
\@writefile{toc}{\contentsline {section}{\numberline {4.15}Testov\IeC {\'a}n\IeC {\'\i } funk\IeC {\v c}nosti, hled\IeC {\'a}n\IeC {\'\i } chyb, monitorov\IeC {\'a}n\IeC {\'\i } program\IeC {\r u}}{127}{section.4.15}}
\@setckpt{programming}{
\setcounter{page}{130}
\setcounter{equation}{0}
\setcounter{enumi}{5}
\setcounter{enumii}{0}
\setcounter{enumiii}{0}
\setcounter{enumiv}{0}
\setcounter{footnote}{0}
\setcounter{mpfootnote}{0}
\setcounter{part}{0}
\setcounter{chapter}{4}
\setcounter{section}{15}
\setcounter{subsection}{0}
\setcounter{subsubsection}{0}
\setcounter{paragraph}{0}
\setcounter{subparagraph}{0}
\setcounter{figure}{0}
\setcounter{table}{0}
\setcounter{parentequation}{0}
\setcounter{FancyVerbLine}{0}
\setcounter{NAT@ctr}{0}
\setcounter{dirtytalk@qdepth}{0}
\setcounter{lips@count}{0}
\setcounter{blindtext}{1}
\setcounter{Blindtext}{5}
\setcounter{blind@countparstart}{0}
\setcounter{blindlist}{0}
\setcounter{blindlistlevel}{0}
\setcounter{blindlist@level}{0}
\setcounter{blind@listcount}{0}
\setcounter{blind@levelcount}{0}
\setcounter{blind@randomcount}{0}
\setcounter{blind@randommax}{0}
\setcounter{blind@pangramcount}{0}
\setcounter{blind@pangrammax}{0}
\setcounter{Item}{9}
\setcounter{Hfootnote}{0}
\setcounter{bookmark@seq@number}{181}
\setcounter{thm}{0}
\setcounter{defn}{0}
\setcounter{section@level}{1}
}
