\relax 
\providecommand\hyper@newdestlabel[2]{}
\@writefile{toc}{\contentsline {chapter}{\numberline {5}Webov\IeC {\'e} technologie}{131}{chapter.5}}
\@writefile{lof}{\addvspace {10\p@ }}
\@writefile{lot}{\addvspace {10\p@ }}
\@writefile{toc}{\contentsline {section}{\numberline {5.1}Obecn\IeC {\'y} p\IeC {\v r}ehled z\IeC {\'a}kladn\IeC {\'\i } webov\IeC {\'y}ch technologi\IeC {\'\i }}{131}{section.5.1}}
\@writefile{toc}{\contentsline {subsection}{\numberline {5.1.1}Taxonomie po\IeC {\v c}\IeC {\'\i }ta\IeC {\v c}ov\IeC {\'y}ch s\IeC {\'\i }t\IeC {\'\i }. Architektura ISO/OSI. P\IeC {\v r}ehled s\IeC {\'\i }\IeC {\v t}ov\IeC {\'e}ho modelu TCP/IP}{132}{subsection.5.1.1}}
\@writefile{toc}{\contentsline {subsection}{\numberline {5.1.2}Sm\IeC {\v e}rov\IeC {\'a}n\IeC {\'\i }, koncept adresy, portu, socketu}{133}{subsection.5.1.2}}
\@writefile{toc}{\contentsline {subsection}{\numberline {5.1.3}Principy datov\IeC {\'y}ch p\IeC {\v r}enos\IeC {\r u} - k\IeC {\'o}dov\IeC {\'a}n\IeC {\'\i }, modulace, p\IeC {\v r}enosov\IeC {\'a} rychlost a p\IeC {\'a}smo, Nyquist\IeC {\r u}v a Shannon\IeC {\r u}v teor\IeC {\'e}m, analogov\IeC {\'y}/digit\IeC {\'a}ln\IeC {\'\i } p\IeC {\v r}enos, p\IeC {\v r}enosov\IeC {\'a} m\IeC {\'e}dia}{135}{subsection.5.1.3}}
\@writefile{toc}{\contentsline {subsection}{\numberline {5.1.4}Techniky p\IeC {\v r}enosu dat - synchronn\IeC {\'\i }/asynchronn\IeC {\'\i } p\IeC {\v r}enosy, CRC, potvrzov\IeC {\'a}n\IeC {\'\i }, \IeC {\v r}\IeC {\'\i }zen\IeC {\'\i } toku}{138}{subsection.5.1.4}}
\@writefile{toc}{\contentsline {subsection}{\numberline {5.1.5}P\IeC {\v r}\IeC {\'\i }stupov\IeC {\'e} metody, \IeC {\v r}e\IeC {\v s}en\IeC {\'\i } koliz\IeC {\'\i }}{139}{subsection.5.1.5}}
\@writefile{toc}{\contentsline {subsection}{\numberline {5.1.6}QoS}{141}{subsection.5.1.6}}
\@writefile{toc}{\contentsline {subsection}{\numberline {5.1.7}HTML}{141}{subsection.5.1.7}}
\@writefile{toc}{\contentsline {subsection}{\numberline {5.1.8}CSS}{142}{subsection.5.1.8}}
\@writefile{toc}{\contentsline {section}{\numberline {5.2}S\IeC {\'\i }\IeC {\v t}ov\IeC {\'e} slu\IeC {\v z}by pro webov\IeC {\'e} technologie}{144}{section.5.2}}
\@writefile{toc}{\contentsline {subsection}{\numberline {5.2.1}Rodina protokol\IeC {\r u} TCP/IP (ARP, IPv4, IPv6, ICMP, UDP, TCP)}{144}{subsection.5.2.1}}
\@writefile{toc}{\contentsline {subsection}{\numberline {5.2.2}Adresace, p\IeC {\v r}id\IeC {\v e}lov\IeC {\'a}n\IeC {\'\i } adres, p\IeC {\v r}evod mezi IP adresami a adresami linkov\IeC {\'e} vrstvy, routing, fragmentace, spolehlivost, flow control, congestion control, NAT}{144}{subsection.5.2.2}}
\@writefile{toc}{\contentsline {subsection}{\numberline {5.2.3}Rozhran\IeC {\'\i } BSD sockets}{145}{subsection.5.2.3}}
\@writefile{toc}{\contentsline {subsection}{\numberline {5.2.4}Spolehlivost - spojovan\IeC {\'e} a nespojovan\IeC {\'e} protokoly, typy, detekce a oprava chyb}{145}{subsection.5.2.4}}
\@writefile{toc}{\contentsline {subsection}{\numberline {5.2.5}Bezpe\IeC {\v c}nost - IPSec, SSL, firewalls}{145}{subsection.5.2.5}}
\@writefile{toc}{\contentsline {subsection}{\numberline {5.2.6}Internetov\IeC {\'e} a intranetov\IeC {\'e} protokoly a technologie - DNS, SMTP, IMAP, POP3, FTP, HTTP, NFS}{145}{subsection.5.2.6}}
\@writefile{toc}{\contentsline {subsection}{\numberline {5.2.7}IP telefonie. Desetimegabitov\IeC {\'e}, stomegabitov\IeC {\'e}, gigabitov\IeC {\'e} verze ethernetu, \IeC {\v r}\IeC {\'\i }zen\IeC {\'\i } toku. Bezdr\IeC {\'a}tov\IeC {\'y} ethernet (protokolov\IeC {\'a} architektura 802.11, p\IeC {\v r}\IeC {\'\i }stupov\IeC {\'e} metody, roaming). xDSL. Mobiln\IeC {\'\i } s\IeC {\'\i }t\IeC {\v e} (GSM, 3G). Bluetooth.}{145}{subsection.5.2.7}}
\@writefile{toc}{\contentsline {subsection}{\numberline {5.2.8}HTTP}{145}{subsection.5.2.8}}
\@writefile{toc}{\contentsline {section}{\numberline {5.3}Webov\IeC {\'e} slu\IeC {\v z}by}{146}{section.5.3}}
\@writefile{toc}{\contentsline {subsection}{\numberline {5.3.1}SOA - Service oriented architecture}{146}{subsection.5.3.1}}
\@writefile{toc}{\contentsline {subsection}{\numberline {5.3.2}XML}{147}{subsection.5.3.2}}
\@writefile{toc}{\contentsline {subsubsection}{XPath}{147}{section*.44}}
\@writefile{toc}{\contentsline {subsubsection}{XML Schema}{147}{section*.45}}
\@writefile{toc}{\contentsline {subsubsection}{XSLT}{147}{section*.46}}
\@writefile{toc}{\contentsline {subsection}{\numberline {5.3.3}Webov\IeC {\'a} slu\IeC {\v z}ba (Web service)}{148}{subsection.5.3.3}}
\@writefile{toc}{\contentsline {subsection}{\numberline {5.3.4}SOAP}{148}{subsection.5.3.4}}
\@writefile{toc}{\contentsline {subsection}{\numberline {5.3.5}WSDL}{150}{subsection.5.3.5}}
\@writefile{toc}{\contentsline {subsection}{\numberline {5.3.6}WS-*}{150}{subsection.5.3.6}}
\@writefile{toc}{\contentsline {subsubsection}{WS-Addressing}{150}{section*.47}}
\@writefile{toc}{\contentsline {subsubsection}{WS-Security}{150}{section*.48}}
\@writefile{toc}{\contentsline {subsubsection}{WS-Policy}{151}{section*.49}}
\@writefile{toc}{\contentsline {subsection}{\numberline {5.3.7}UDDI}{151}{subsection.5.3.7}}
\@writefile{toc}{\contentsline {subsection}{\numberline {5.3.8}WS-BPEL}{152}{subsection.5.3.8}}
\@writefile{toc}{\contentsline {subsection}{\numberline {5.3.9}REST}{153}{subsection.5.3.9}}
\@writefile{toc}{\contentsline {subsection}{\numberline {5.3.10}S\IeC {\'e}mantick\IeC {\'e} webov\IeC {\'e} slu\IeC {\v z}by}{154}{subsection.5.3.10}}
\@writefile{toc}{\contentsline {section}{\numberline {5.4}Architektura klient-server aplikac\IeC {\'\i }}{155}{section.5.4}}
\@writefile{toc}{\contentsline {section}{\numberline {5.5}Skriptov\IeC {\'a}n\IeC {\'\i } na stran\IeC {\v e} serveru}{157}{section.5.5}}
\@writefile{toc}{\contentsline {subsection}{\numberline {5.5.1}PHP}{157}{subsection.5.5.1}}
\@writefile{toc}{\contentsline {section}{\numberline {5.6}Skriptov\IeC {\'a}n\IeC {\'\i } na stran\IeC {\v e} klienta}{161}{section.5.6}}
\@writefile{toc}{\contentsline {subsection}{\numberline {5.6.1}JavaScript}{162}{subsection.5.6.1}}
\@writefile{toc}{\contentsline {section}{\numberline {5.7}Webov\IeC {\'e} frameworky}{165}{section.5.7}}
\@writefile{toc}{\contentsline {section}{\numberline {5.8}Pou\IeC {\v z}it\IeC {\'\i } datab\IeC {\'a}zov\IeC {\'y}ch syst\IeC {\'e}m\IeC {\r u} ve webov\IeC {\'y}ch aplikac\IeC {\'\i }ch, NoSQL datab\IeC {\'a}ze, multimedi\IeC {\'a}ln\IeC {\'\i } datab\IeC {\'a}ze}{167}{section.5.8}}
\@writefile{toc}{\contentsline {subsection}{\numberline {5.8.1}NOSQL datab\IeC {\'a}ze}{167}{subsection.5.8.1}}
\@writefile{toc}{\contentsline {subsubsection}{HDFS}{169}{section*.50}}
\@writefile{toc}{\contentsline {subsubsection}{MapReduce}{169}{section*.51}}
\@writefile{toc}{\contentsline {subsubsection}{Key-value}{170}{section*.52}}
\@writefile{toc}{\contentsline {subsubsection}{Column-family stores}{171}{section*.53}}
\@writefile{toc}{\contentsline {subsubsection}{Dokumentov\IeC {\'e} datab\IeC {\'a}ze}{171}{section*.54}}
\@writefile{toc}{\contentsline {subsubsection}{Grafov\IeC {\'e} datab\IeC {\'a}ze}{172}{section*.55}}
\@writefile{toc}{\contentsline {subsubsection}{Multi-model datab\IeC {\'a}ze}{172}{section*.56}}
\@writefile{toc}{\contentsline {subsubsection}{Mics}{172}{section*.57}}
\@writefile{toc}{\contentsline {section}{\numberline {5.9}Indexace a prohled\IeC {\'a}v\IeC {\'a}n\IeC {\'\i } dokument\IeC {\r u}, principy fungov\IeC {\'a}n\IeC {\'\i } webov\IeC {\'y}ch vyhled\IeC {\'a}va\IeC {\v c}\IeC {\r u}}{173}{section.5.9}}
\@writefile{toc}{\contentsline {subsection}{\numberline {5.9.1}Vyhled\IeC {\'a}va\IeC {\v c}e}{173}{subsection.5.9.1}}
\@writefile{toc}{\contentsline {subsection}{\numberline {5.9.2}Page ranking}{174}{subsection.5.9.2}}
\@writefile{toc}{\contentsline {subsection}{\numberline {5.9.3}Search engine ranking and SEO}{175}{subsection.5.9.3}}
\@writefile{toc}{\contentsline {subsection}{\numberline {5.9.4}Recommender systems}{176}{subsection.5.9.4}}
\@writefile{toc}{\contentsline {subsection}{\numberline {5.9.5}Booleovsk\IeC {\'y} model}{176}{subsection.5.9.5}}
\@writefile{toc}{\contentsline {subsection}{\numberline {5.9.6}Vektorov\IeC {\'y} model}{177}{subsection.5.9.6}}
\@writefile{toc}{\contentsline {subsection}{\numberline {5.9.7}Vyhled\IeC {\'a}v\IeC {\'a}n\IeC {\'\i } v multimedi\IeC {\'\i }ch}{177}{subsection.5.9.7}}
\@writefile{toc}{\contentsline {subsection}{\numberline {5.9.8}Podobnost}{178}{subsection.5.9.8}}
\@writefile{toc}{\contentsline {subsection}{\numberline {5.9.9}Podobnostn\IeC {\'\i } funkce}{178}{subsection.5.9.9}}
\@writefile{toc}{\contentsline {subsection}{\numberline {5.9.10}Glob\IeC {\'a}ln\IeC {\'\i } deskriptory obr\IeC {\'a}zk\IeC {\r u}}{179}{subsection.5.9.10}}
\@writefile{toc}{\contentsline {subsection}{\numberline {5.9.11}Lok\IeC {\'a}ln\IeC {\'\i } deskriptory obr\IeC {\'a}zk\IeC {\r u}}{180}{subsection.5.9.11}}
\@writefile{toc}{\contentsline {subsection}{\numberline {5.9.12}Neuronov\IeC {\'e} s\IeC {\'\i }t\IeC {\v e}}{181}{subsection.5.9.12}}
\@writefile{toc}{\contentsline {subsection}{\numberline {5.9.13}2D a 3D modely}{181}{subsection.5.9.13}}
\@writefile{toc}{\contentsline {subsection}{\numberline {5.9.14}Video, Audio}{182}{subsection.5.9.14}}
\@writefile{toc}{\contentsline {subsection}{\numberline {5.9.15}Metrick\IeC {\'e} indexov\IeC {\'a}n\IeC {\'\i } podobnosti - TODO}{183}{subsection.5.9.15}}
\@writefile{toc}{\contentsline {section}{\numberline {5.10}Linked Data}{184}{section.5.10}}
\@writefile{toc}{\contentsline {subsection}{\numberline {5.10.1}Principy}{184}{subsection.5.10.1}}
\@writefile{toc}{\contentsline {subsection}{\numberline {5.10.2}Integrace s\IeC {\'e}mantick\IeC {\'y}ch dat do webov\IeC {\'y}ch str\IeC {\'a}nek}{184}{subsection.5.10.2}}
\@writefile{toc}{\contentsline {subsection}{\numberline {5.10.3}RDF}{185}{subsection.5.10.3}}
\@writefile{toc}{\contentsline {subsection}{\numberline {5.10.4}RDF Schema}{186}{subsection.5.10.4}}
\@writefile{toc}{\contentsline {subsection}{\numberline {5.10.5}SPARQL}{187}{subsection.5.10.5}}
\@writefile{toc}{\contentsline {subsection}{\numberline {5.10.6}Linked data platform}{187}{subsection.5.10.6}}
\@writefile{toc}{\contentsline {subsection}{\numberline {5.10.7}Social web protocols}{187}{subsection.5.10.7}}
\@writefile{toc}{\contentsline {section}{\numberline {5.11}Zaji\IeC {\v s}t\IeC {\v e}n\IeC {\'\i } bezpe\IeC {\v c}nosti informa\IeC {\v c}n\IeC {\'\i }ch syst\IeC {\'e}m\IeC {\r u} v prost\IeC {\v r}ed\IeC {\'\i } internetu, autentizace, autorizace, bezpe\IeC {\v c}nostn\IeC {\'\i } modely, z\IeC {\'a}klady \IeC {\v s}ifrov\IeC {\'a}n\IeC {\'\i }, ochrana dat}{188}{section.5.11}}
\@writefile{toc}{\contentsline {subsection}{\numberline {5.11.1}Modely}{189}{subsection.5.11.1}}
\@writefile{toc}{\contentsline {subsection}{\numberline {5.11.2}Autorizace}{190}{subsection.5.11.2}}
\@writefile{toc}{\contentsline {subsection}{\numberline {5.11.3}Autentizace}{191}{subsection.5.11.3}}
\@writefile{toc}{\contentsline {subsection}{\numberline {5.11.4}\IeC {\v S}ifrov\IeC {\'a}n\IeC {\'\i }}{191}{subsection.5.11.4}}
\@writefile{toc}{\contentsline {subsection}{\numberline {5.11.5}Prost\IeC {\v r}ed\IeC {\'\i } internetu}{192}{subsection.5.11.5}}
\@writefile{toc}{\contentsline {subsection}{\numberline {5.11.6}Bezpe\IeC {\v c}nost v datab\IeC {\'a}z\IeC {\'\i }ch}{193}{subsection.5.11.6}}
\@setckpt{web}{
\setcounter{page}{195}
\setcounter{equation}{0}
\setcounter{enumi}{2}
\setcounter{enumii}{0}
\setcounter{enumiii}{0}
\setcounter{enumiv}{0}
\setcounter{footnote}{0}
\setcounter{mpfootnote}{0}
\setcounter{part}{0}
\setcounter{chapter}{5}
\setcounter{section}{11}
\setcounter{subsection}{6}
\setcounter{subsubsection}{0}
\setcounter{paragraph}{0}
\setcounter{subparagraph}{0}
\setcounter{figure}{0}
\setcounter{table}{0}
\setcounter{parentequation}{0}
\setcounter{FancyVerbLine}{0}
\setcounter{NAT@ctr}{0}
\setcounter{dirtytalk@qdepth}{0}
\setcounter{lips@count}{0}
\setcounter{blindtext}{1}
\setcounter{Blindtext}{5}
\setcounter{blind@countparstart}{0}
\setcounter{blindlist}{0}
\setcounter{blindlistlevel}{0}
\setcounter{blindlist@level}{0}
\setcounter{blind@listcount}{0}
\setcounter{blind@levelcount}{0}
\setcounter{blind@randomcount}{0}
\setcounter{blind@randommax}{0}
\setcounter{blind@pangramcount}{0}
\setcounter{blind@pangrammax}{0}
\setcounter{Item}{37}
\setcounter{Hfootnote}{0}
\setcounter{bookmark@seq@number}{250}
\setcounter{thm}{0}
\setcounter{defn}{0}
\setcounter{section@level}{2}
}
